Date,Time,Error Code,Source,Message
27/1/2021,1:08:17 PM,1430,Test - Error.vi,Error 1430 occurred at Open/Create/Replace File in Test - Error.vi  Possible reason(s):  LabVIEW: (Hex 0x596) The path is empty or relative. You must use an absolute path.
27/1/2021,1:08:19 PM,1430,Test - Error.vi,Error 1430 occurred at Open/Create/Replace File in Test - Error.vi  Possible reason(s):  LabVIEW: (Hex 0x596) The path is empty or relative. You must use an absolute path.
27/1/2021,1:08:23 PM,1430,Test - Error.vi,Error 1430 occurred at Open/Create/Replace File in Test - Error.vi  Possible reason(s):  LabVIEW: (Hex 0x596) The path is empty or relative. You must use an absolute path.
27/1/2021,1:08:24 PM,1430,Test - Error.vi,Error 1430 occurred at Open/Create/Replace File in Test - Error.vi  Possible reason(s):  LabVIEW: (Hex 0x596) The path is empty or relative. You must use an absolute path.
27/1/2021,1:08:25 PM,1430,Test - Error.vi,Error 1430 occurred at Open/Create/Replace File in Test - Error.vi  Possible reason(s):  LabVIEW: (Hex 0x596) The path is empty or relative. You must use an absolute path.
27/1/2021,1:08:25 PM,1430,Test - Error.vi,Error 1430 occurred at Open/Create/Replace File in Test - Error.vi  Possible reason(s):  LabVIEW: (Hex 0x596) The path is empty or relative. You must use an absolute path.
27/1/2021,1:08:26 PM,1430,Test - Error.vi,Error 1430 occurred at Open/Create/Replace File in Test - Error.vi  Possible reason(s):  LabVIEW: (Hex 0x596) The path is empty or relative. You must use an absolute path.
27/1/2021,1:08:26 PM,1430,Test - Error.vi,Error 1430 occurred at Open/Create/Replace File in Test - Error.vi  Possible reason(s):  LabVIEW: (Hex 0x596) The path is empty or relative. You must use an absolute path.
27/1/2021,1:08:27 PM,1430,Test - Error.vi,Error 1430 occurred at Open/Create/Replace File in Test - Error.vi  Possible reason(s):  LabVIEW: (Hex 0x596) The path is empty or relative. You must use an absolute path.
