Date,Time,Error Code,Source,State,Message
23/2/2021,5:34:59 PM,1430,Test - Error.vi,Testing Error,Error 1430 occurred at Open/Create/Replace File in Test - Error.vi  Possible reason(s):  LabVIEW: (Hex 0x596) The path is empty or relative. You must use an absolute path.
23/2/2021,5:35:02 PM,1430,Test - Error.vi,Testing Error,Error 1430 occurred at Open/Create/Replace File in Test - Error.vi  Possible reason(s):  LabVIEW: (Hex 0x596) The path is empty or relative. You must use an absolute path.
23/2/2021,5:35:03 PM,1430,Test - Error.vi,Testing Error,Error 1430 occurred at Open/Create/Replace File in Test - Error.vi  Possible reason(s):  LabVIEW: (Hex 0x596) The path is empty or relative. You must use an absolute path.
